name="The Bronze Age: Reborn"
tags={
	"Total Conversion"
	"Historical"
	"Map"
}
supported_version="1.6.*"
replace_path="common/religion/religions"
replace_path="common/culture/cultures"
replace_path="common/culture/name_lists"
replace_path="common/dynasties"
replace_path="common/dynasty_legacies"
replace_path="history/artifacts"
replace_path="history/cultures"
replace_path="history/characters"
replace_path="history/provinces"
replace_path="history/titles"
replace_path="common/bookmark_portraits"
replace_path="tests"