﻿object={
	name="tree_jungle_01_c_generator_1_0"
	clamp_to_water_level=no
	render_under_water=no
	generated_content=yes
	layer="tree_high_layer"
	pdxmesh="tree_jungle_01_c_mesh"
	count=5
	transform="2774.488281 0.000000 2138.339355 0.000000 0.916838 0.000000 0.399259 0.894463 0.894463 0.894463
2768.026611 0.000000 2139.115234 0.000000 0.797720 0.000000 0.603027 0.882547 0.882547 0.882547
2772.072754 0.000000 2144.595459 0.000000 0.998226 0.000000 0.059546 0.896519 0.896519 0.896519
2772.189697 0.000000 2141.622070 0.000000 0.942547 0.000000 0.334075 0.876274 0.876274 0.876274
2834.303467 0.000000 2166.487549 0.000000 0.825013 0.000000 -0.565114 0.941832 0.941832 0.941832
"}
