﻿#############################
# REALM CULTURAL TRADITIONS #
#############################

tradition_court_eunuchs = {
	category = realm

	layers = {
		0 = intrigue
		1 = mediterranean
		4 = ceremony.dds
	}

	can_pick = {
		custom_tooltip = {
			scope:character = {
				OR = {
					any_courtier = {
						has_trait = eunuch
					}
					any_vassal = {
						has_trait = eunuch
					}
					any_councillor = {
						has_trait = eunuch
					}
				}
			}
			text = no_eunuch_in_realms
		}
	}
	
	parameters = {
		can_castrate_prisoners = yes
		eunuch_trait_bonuses = yes
		can_appoint_chief_eunuch = yes
	}

	cost = {
		prestige = {
			add = {
				value = tradition_base_cost
				desc = BASE
				format = "BASE_VALUE_FORMAT"
			}
			if = {
				limit = {
					NOR = {
						any_in_list = { list = traits this = flag:ethos_courtly }
						any_in_list = { list = traits this = flag:ethos_communal }
						any_in_list = { list = traits this = flag:ethos_spiritual }
					}
				}
				add = {
					value = tradition_incompatible_ethos_penalty
					desc = not_courtly_communal_or_spiritual_desc
				}
			}
			if = {
				limit = {
					NOT = {
						scope:character = {
							any_councillor = {
								has_trait = eunuch
							}
						}
					}
				}
				add = {
					value = tradition_unfulfilled_criteria_penalty
					desc = no_eunuch_councillors_desc
				}
			}
			
			multiply = tradition_replacement_cost_if_relevant
		}
	}

	ai_will_do = {
		value = 100
		if = {
			limit = {
				NOT = {
					scope:character = {
						any_councillor = {
							has_trait = eunuch
						}
					}
				}
			}
			multiply = 0
		}
	}
}

tradition_legalistic = {
	category = realm

	layers = {
		0 = learning
		1 = mediterranean
		4 = quill.dds
	}

	is_shown = { 
	}
	
	parameters = {
		cheaper_to_change_laws = yes
		just_trait_more_common = yes
		just_trait_gives_bonuses = yes
		vassals_more_likely_accept_punishments = yes
	}
	character_modifier = {
		title_creation_cost_mult = -0.3
		vassal_limit = 30
		monthly_prestige_gain_per_dread_mult = -0.01
		tyranny_gain_mult = 0.25
	}
	
	cost = {
		prestige = {
			add = {
				value = tradition_base_cost
				desc = BASE
				format = "BASE_VALUE_FORMAT"
			}
			if = {
				limit = {
					NOR = {
						any_in_list = { list = traits this = flag:ethos_communal }
						any_in_list = { list = traits this = flag:ethos_egalitarian }
						any_in_list = { list = traits this = flag:ethos_courtly}
					}
				}
				add = {
					value = tradition_incompatible_ethos_penalty
					desc = not_communal_egalitarian_or_courtly_desc
				}
			}
			if = {
				limit = {
					NOT = {
						has_innovation = innovation_development_2
					}
				}
				add = {
					value = tradition_unfulfilled_criteria_penalty
					desc = lacks_development_02_innovation_desc
				}
			}
			
			multiply = tradition_replacement_cost_if_relevant
		}
	}
	
	ai_will_do = {
		value = 100
		if = {
			limit = {
				scope:character = {
					any_vassal = {
						count < 30
					}
				}
			}
			multiply = 0.5
		}
		if = {
			limit = {
				NOT = {
					has_innovation = innovation_development_2
				}
			}
			multiply = 0.25
		}
	}
}

tradition_esteemed_hospitality = {
	category = realm

	layers = {
		0 = diplo
		1 = mena
		4 = greeting.dds
	}
	
	is_shown = {
	}
	can_pick = {
	}
	
	parameters = {
		courtiers_and_guests_less_likely_to_join_schemes = yes
		cheaper_guest_recruitment = yes
		cheaper_court_positions = yes
	}
	character_modifier = {
		courtier_and_guest_opinion = 10
		owned_personal_scheme_success_chance_add = 5
	}
	
	cost = {
		prestige = {
			add = {
				value = tradition_base_cost
				desc = BASE
				format = "BASE_VALUE_FORMAT"
			}
			if = {
				limit = {
					NOR = {
						any_in_list = { list = traits this = flag:ethos_courtly }
						any_in_list = { list = traits this = flag:ethos_communal }
						any_in_list = { list = traits this = flag:ethos_spiritual }
					}
				}
				add = {
					value = tradition_incompatible_ethos_penalty
					desc = not_courtly_communal_or_spiritual_desc
				}
			}
			
			multiply = tradition_replacement_cost_if_relevant
		}
	}
	
	ai_will_do = {
		value = 100
		if = {
			limit = {
				any_in_list = { list = traits this = flag:ethos_bellicose }
			}
			multiply = 0
		}
	}
}

tradition_gardening = {
	category = realm

	layers = {
		0 = steward
		1 = mediterranean
		4 = tools.dds
	}
	
	parameters = {
		enable_garden_duchy_building = yes
		can_appoint_court_gardener = yes
		can_recruit_gardeners = yes
	}
	
	cost = {
		prestige = {
			add = {
				value = tradition_base_cost
				desc = BASE
				format = "BASE_VALUE_FORMAT"
			}
			if = {
				limit = {
					NOR = {
						any_in_list = { list = traits this = flag:ethos_courtly }
						any_in_list = { list = traits this = flag:ethos_communal }
						any_in_list = { list = traits this = flag:ethos_spiritual }
					}
				}
				add = {
					value = tradition_incompatible_ethos_penalty
					desc = not_courtly_communal_or_spiritual_desc
				}
			}
			if = {
				limit = {
					NOT = {
						any_culture_county = {
							count >= 10
							any_county_province = {
								OR = {
									has_building_or_higher = orchards_01
									has_building_or_higher = plantations_01
									has_building_or_higher = cereal_fields_01
								}
							}
						}
					}
				}
				add = {
					value = tradition_unfulfilled_criteria_penalty
					desc = gardening_buildings_percentage_desc
				}
			}
			
			multiply = tradition_replacement_cost_if_relevant
		}
	}
	
	ai_will_do = {
		value = 100
		if = {
			limit = {
				NOT = {
					any_in_list = { list = traits this = flag:ethos_courtly }
				}
			}
			multiply = 0
		}
	}
}

tradition_tribe_unity = {
	category = realm

	layers = {
		0 = martial
		1 = mena
		4 = crown.dds
	}
	
	is_shown = { 
	}
	can_pick = {
		custom_tooltip = {
			text = requires_tribal_or_clan_government_trigger
			scope:character = {
				has_government = tribal_government
			}
		}
	}
	
	parameters = {
		bonuses_from_patriarch_matriarch_trait = yes
		cultural_house_personal_scheme_success_chance = yes
		landing_house_members_give_prestige = yes
		penalty_for_revoking_titles_from_house_members = yes
	}
	character_modifier = {
		dynasty_house_opinion = 10
		opinion_of_liege = -5
	}
	
	cost = {
		prestige = {
			add = {
				value = tradition_base_cost
				desc = BASE
				format = "BASE_VALUE_FORMAT"
			}
			if = {
				limit = {
					NOR = {
						any_in_list = { list = traits this = flag:ethos_communal }
						any_in_list = { list = traits this = flag:ethos_spiritual }
						any_in_list = { list = traits this = flag:ethos_stoic }
					}
				}
				add = {
					value = tradition_incompatible_ethos_penalty
					desc = not_communal_spiritual_or_stoic_desc
				}
			}
			if = {
				limit = {
					exists = scope:character.house
					NOT = {
						scope:character.house = {
							any_house_member = {
								count >= 3
								has_relation_friend = scope:character
							}
						}
					}
				}
				add = {
					value = tradition_unfulfilled_criteria_penalty
					desc = house_friends_desc
				}
			}
			
			multiply = tradition_replacement_cost_if_relevant
		}
	}
	
	ai_will_do = {
		value = 100
		if = {
			limit = {
				NOT = {
					scope:character = {
						has_government = tribal_government
					}
				}
			}
			multiply = 0
		}
	}
}

tradition_astute_diplomats = {
	category = realm

	layers = {
		0 = diplo
		1 = western
		4 = diplomat.dds
	}
	
	parameters = {
		cannot_attack_allies = yes
		cannot_attack_truces = yes
		facilitate_alliance_acceptance = yes
		facilitate_white_peace = yes
		extra_language_cap_2 = yes
	}
	character_modifier = {
		learn_language_scheme_power_mult = 0.25
	}
	
	cost = {
		prestige = {
			add = {
				value = tradition_base_cost
				desc = BASE
				format = "BASE_VALUE_FORMAT"
			}
			if = {
				limit = {
					any_in_list = { list = traits this = flag:ethos_bellicose }
				}
				add = {
					value = tradition_incompatible_ethos_penalty
					desc = culture_not_bellicose
				}
			}
			
			multiply = tradition_replacement_cost_if_relevant
		}
	}
	
	ai_will_do = { value = 100 }
}

tradition_collective_lands = {
	category = realm

	layers = {
		0 = learning
		1 = indian
		4 = farmland.dds
	}
	
	parameters = {
		grants_to_lowborns_bonuses = yes
	}
	county_modifier = {
		development_growth_factor = 0.2
		monthly_county_control_change_factor = -0.2
		build_speed = 0.2
	}
	
	cost = {
		prestige = {
			add = {
				value = tradition_base_cost
				desc = BASE
				format = "BASE_VALUE_FORMAT"
			}
			if = {
				limit = {
					NOR = {
						any_in_list = { list = traits this = flag:ethos_communal }
						any_in_list = { list = traits this = flag:ethos_egalitarian }
						any_in_list = { list = traits this = flag:ethos_stoic }
					}
				}
				add = {
					value = tradition_incompatible_ethos_penalty
					desc = not_communal_egalitarian_or_stoic_desc
				}
			}
			if = {
				limit = {
					trigger_if = {
						limit = {
							scope:character = {
								is_ai = no
							}
						}
						NOT = {
							any_ruler = {
								count >= 2
								culture = prev
								primary_title.tier >= tier_county
								has_trait = peasant_leader
							}
						}
					}
					trigger_else = {
						always = yes
					}
				}
				add = {
					value = tradition_unfulfilled_criteria_penalty
					desc = rulers_with_peasant_leader_desc
				}
			}
			
			multiply = tradition_replacement_cost_if_relevant
		}
	}
	
	ai_will_do = {
		value = 100
		if = {
			limit = {
				NOT = {
					scope:character = {
						OR = {
							has_trait = peasant_leader
							any_parent = {
								has_trait = peasant_leader
							}
						}
					}
				}
			}
			multiply = 0
		}
	}
}

tradition_female_only_inheritance = {
	category = realm

	layers = {
		0 = learning
		1 = indian
		4 = crown.dds
	}
	
	can_pick = {
		scope:character = {
			primary_title = {
				NOR = {
					has_title_law = male_only_law
					has_title_law = male_preference_law
				}
			}
			NOR = {
				has_realm_law = male_only_law
				has_realm_law = male_preference_law
			}
		}
	}
	
	parameters = {
		female_only_inheritance = yes
		female_preference_inheritance = yes
	}
	character_modifier = {
		opinion_of_female_rulers = 10
		opinion_of_male_rulers = -10
	}
	
	cost = {
		prestige = {
			add = {
				value = tradition_base_cost
				desc = BASE
				format = "BASE_VALUE_FORMAT"
			}
			if = {
				limit = {
					NOR = {
						has_game_rule = inversed_gender_equality
						any_in_list = { list = traits this = flag:ethos_egalitarian }
					}
				}
				add = {
					value = tradition_incompatible_ethos_penalty
					desc = not_egalitarian_desc
				}
			}
			if = {
				limit = {
					trigger_if = {
						limit = {
							scope:character = {
								is_ai = no
							}
						}
						NOT = {
							any_ruler = {
								count >= 5
								culture = prev
								primary_title.tier >= tier_county
								is_female = yes
							}
						}
					}
					trigger_else = {
						always = no
					}
				}
				add = {
					value = tradition_unfulfilled_criteria_penalty
					desc = five_female_rulers_desc
				}
			}
			
			multiply = tradition_replacement_cost_if_relevant
		}
	}
	
	ai_will_do = {
		value = 25
		if = {
			limit = {
				NOT = {
					scope:character = {
						is_female = yes
					}
				}
			}
			multiply = 0
		}
	}
}

tradition_equal_inheritance = {
	category = realm

	layers = {
		0 = diplo
		1 = western
		4 = crown.dds
	}

	can_pick = {
	}
	
	parameters = {
		gender_equal_inheritance = yes
	}
	doctrine_character_modifier = {
		name = tradition_equal_inheritance_name
		doctrine = doctrine_gender_male_dominated
		opinion_of_female_rulers = 10
	}
	doctrine_character_modifier = {
		name = tradition_equal_inheritance_name
		doctrine = doctrine_gender_female_dominated
		opinion_of_male_rulers = 10
	}
	
	cost = {
		prestige = {
			add = {
				value = tradition_base_cost
				desc = BASE
				format = "BASE_VALUE_FORMAT"
			}
			if = {
				limit = {
					NOT = {
						any_in_list = { list = traits this = flag:ethos_egalitarian }
					}
				}
				add = {
					value = tradition_incompatible_ethos_penalty
					desc = not_egalitarian_desc
				}
			}
			if = {
				limit = {
					trigger_if = {
						limit = {
							scope:character = {
								is_ai = no
							}
						}
						NAND = {
							any_ruler = {
								count >= 3
								culture = prev
								primary_title.tier >= tier_county
								is_male = yes
							}
							any_ruler = {
								count >= 3
								culture = prev
								primary_title.tier >= tier_county
								is_female = yes
							}
						}
					}
					trigger_else = {
						always = yes
					}
				}
				add = {
					value = tradition_unfulfilled_criteria_penalty
					desc = three_gender_rulers_desc
				}
			}
			
			multiply = tradition_replacement_cost_if_relevant
		}
	}
	
	ai_will_do = {
		value = 25
		if = {
			limit = {
				NOR = {
					scope:character = {
						is_female = yes
						faith = {
							has_doctrine_parameter = male_dominated_law
						}
					}
					scope:character = {
						is_male = yes
						faith = {
							has_doctrine_parameter = female_dominated_law
						}
					}
				}
			}
			multiply = 0
		}
	}
}

tradition_metal_craftsmanship = {
	category = realm

	layers = {
		0 = steward
		1 = mediterranean
		4 = tools.dds
	}
	
	parameters = {
		better_armory_buildings = yes
		better_blacksmith_buildings = yes
	}
	character_modifier = {
		army_toughness_mult = 0.05
		army_maintenance_mult = 0.05
	}

	cost = {
		prestige = {
			add = {
				value = tradition_base_cost
				desc = BASE
				format = "BASE_VALUE_FORMAT"
			}
			if = {
				limit = {
					NOR = {
						any_in_list = { list = traits this = flag:ethos_communal }
						any_in_list = { list = traits this = flag:ethos_bureaucratic }
						any_in_list = { list = traits this = flag:ethos_stoic }
					}
				}
				add = {
					value = tradition_incompatible_ethos_penalty
					desc = not_communal_bureaucratic_or_stoic_desc
				}
			}
			if = {
				limit = {
					NOT = {
						any_culture_county = {
							count >= 1
							any_county_province = {
								OR = {
									has_building_or_higher = copper_mine_01
									has_building_or_higher = turquoise_mines_01
									has_building_or_higher = major_quarry_01
									has_building_or_higher = bitumen_mine_01
									has_building_or_higher = gold_mine_01
									has_building_or_higher = silver_mine_01
								}
							}
						}
					}
				}
				add = {
					value = tradition_unfulfilled_criteria_penalty
					desc = has_a_special_mine_desc
				}
			}
			
			multiply = tradition_replacement_cost_if_relevant
		}
	}
	
	ai_will_do = {
		value = 100
		if = {
			limit = {
				NOT = {
					any_culture_county = {
						count >= 1
						any_county_province = {
							OR = {
								has_building_or_higher = blacksmiths_01
								has_building_or_higher = royal_armory_01
							}
						}
					}
				}
			}
			multiply = 0.25
		}
	}
}

tradition_family_entrepreneurship = {
	category = realm

	layers = {
		0 = steward
		1 = indian
		4 = noble.dds
	}
	
	can_pick = {
		custom_tooltip = {
			text = not_numerous_close_family_desc
			scope:character = {
				any_close_family_member = {
					count >= 10
					is_alive = yes
				}
			}
		}
	}
	
	parameters = {
		close_family_better_councillors = yes
		close_family_better_court_positions = yes
		penalty_for_revoking_titles_from_close_family = yes
	}
	character_modifier = {
		close_relative_opinion = 5
	}
	
	cost = {
		prestige = {
			add = {
				value = tradition_base_cost
				desc = BASE
				format = "BASE_VALUE_FORMAT"
			}
			if = {
				limit = {
					NOR = {
						any_in_list = { list = traits this = flag:ethos_communal }
						any_in_list = { list = traits this = flag:ethos_courtly }
					}
				}
				add = {
					value = tradition_incompatible_ethos_penalty
					desc = not_communal_or_courtly_desc
				}
			}
			if = {
				limit = {
					trigger_if = {
						limit = {
							scope:character = {
								is_ai = no
							}
						}
						NOT = {
							scope:character = {
								any_close_family_member = {
									percent > 0.5
									save_temporary_opinion_value_as = { name = target_opinion target = scope:character }		
									scope:target_opinion >= 80
								}
							}
						}
					}
					trigger_else = {
						always = no
					}
				}
				add = {
					value = tradition_unfulfilled_criteria_penalty
					desc = not_strong_opinion_close_family_desc
				}
			}
			
			multiply = tradition_replacement_cost_if_relevant
		}
	}
	
	ai_will_do = {
		value = 100
		if = {
			limit = {
				scope:character = {
					any_close_family_member = {
						count < 15
					}
				}
			}
			multiply = 0.25
		}
	}
}

tradition_wedding_ceremonies = {
	category = realm

	layers = {
		0 = diplo
		1 = indian
		4 = greeting.dds
	}
	
	parameters = {
		better_spouses = yes
		marriage_acceptance_bonus = yes
		cannot_divorce = yes
		adulterer_fornicator_penalties = yes
		hostile_scheme_success_chance_vs_spouse_penalty = yes
	}

	cost = {
		prestige = {
			add = {
				value = tradition_base_cost
				desc = BASE
				format = "BASE_VALUE_FORMAT"
			}
			if = {
				limit = {
					NOR = {
						any_in_list = { list = traits this = flag:ethos_courtly }
						any_in_list = { list = traits this = flag:ethos_communal }
						any_in_list = { list = traits this = flag:ethos_spiritual }
					}
				}
				add = {
					value = tradition_incompatible_ethos_penalty
					desc = not_courtly_communal_or_spiritual_desc
				}
			}
			if = {
				limit = {
					trigger_if = {
						limit = {
							scope:character = {
								is_ai = no
							}
						}
						any_ruler = {
							count >= 5
							primary_title.tier >= tier_county
							culture = prev
							has_trait = adulterer
						}
					}
					trigger_else = {
						always = no
					}
				}
				add = {
					value = tradition_unfulfilled_criteria_penalty
					desc = rulers_with_adulterer_desc
				}
			}
			
			multiply = tradition_replacement_cost_if_relevant
		}
	}
	
	ai_will_do = {
		value = 100
		if = {
			limit = {
				NOR = {
					any_in_list = { list = traits this = flag:ethos_courtly }
					any_in_list = { list = traits this = flag:ethos_communal }
					any_in_list = { list = traits this = flag:ethos_spiritual }
				}
			}
			multiply = 0
		}
	}
}

tradition_culture_blending = {
	category = realm
	
	layers = {
		0 = learning
		1 = indian
		4 = conversation.dds
	}
	
	is_shown = {
		has_dlc_feature = hybridize_culture
	}
	
	parameters = {
		cheaper_to_hybridize = yes
		learns_more_languages = yes
	}
	culture_modifier = {
		cultural_acceptance_gain_mult = 0.25
	}
	character_modifier = {
		max_learn_language_schemes_add = 1
		learn_language_scheme_power_mult = 0.3
	}
	
	cost = {
		prestige = {
			add = {
				value = tradition_base_cost
				desc = BASE
				format = "BASE_VALUE_FORMAT"
			}
			if = {
				limit = {
					NOR = {
						any_in_list = { list = traits this = flag:ethos_communal }
						any_in_list = { list = traits this = flag:ethos_egalitarian }
					}
				}
				add = {
					value = tradition_incompatible_ethos_penalty
					desc = not_communal_or_egalitarian_desc
				}
			}
			if = {
				limit = {
					NOT = {
						scope:character = {
							any_sub_realm_county = {
								percent >= 0.3
								NOT = { culture = root }
							}
						}
					}
				}
				add = {
					value = tradition_unfulfilled_criteria_penalty
					desc = multiple_cultures_in_realm_percentage_desc
				}
			}
			
			multiply = tradition_replacement_cost_if_relevant
		}
	}
	
	ai_will_do = {
		value = 100
		if = {
			limit = {
				is_divergent_culture = no
			}
			multiply = 0
		}
	}
}

tradition_isolationist = {
	category = realm

	layers = {
		0 = intrigue
		1 = mediterranean
		4 = noble.dds
	}
	
	parameters = {
		courtiers_less_likely_to_leave_same_culture_court = yes
		dislikes_marrying_outside_of_culture = yes
		ai_doesnt_marry_outside_culture = yes
	}
	culture_modifier = {
		cultural_acceptance_gain_mult = -0.35
	}
	character_modifier = {
		diplomatic_range_mult = -0.25
		same_culture_opinion = 5
		
		ai_war_chance = -0.5
		ai_war_cooldown = 5
	}
	county_modifier = {
		monthly_county_control_change_add = 0.5
	}
	
	cost = {
		prestige = {
			add = {
				value = tradition_base_cost
				desc = BASE
				format = "BASE_VALUE_FORMAT"
			}
			if = {
				limit = {
					NOR = {
						any_in_list = { list = traits this = flag:ethos_communal }
						any_in_list = { list = traits this = flag:ethos_spiritual }
						any_in_list = { list = traits this = flag:ethos_stoic }
					}
				}
				add = {
					value = tradition_incompatible_ethos_penalty
					desc = not_communal_spiritual_or_stoic_desc
				}
			}
			if = {
				limit = {
					scope:character = {
						any_sub_realm_county = {
							culture = scope:character.culture
							any_neighboring_county = {
								NOT = {
									culture = scope:character.culture
								}
								culture = {
									cultural_acceptance = { target = scope:character.culture value >= 40 }
								}
							}
						}
					}
				}
				add = {
					value = tradition_unfulfilled_criteria_penalty
					desc = non_tolerated_cultures_desc
				}
			}
			
			multiply = tradition_replacement_cost_if_relevant
		}
	}
	
	ai_will_do = {
		value = 100
		if = {
			limit = {
				NOT = {
					is_divergent_culture = yes
				}
			}
			multiply = 0
		}
		if = {
			limit = {
				any_in_list = { list = traits this = flag:ethos_egalitarian }
			}
			multiply = 0
		}
	}
}

tradition_fervent_temple_builders = {
	category = realm

	layers = {
		0 = learning
		1 = mediterranean
		4 = temple.dds
	}

	can_pick = {
	}
	
	parameters = {
		more_fervor_on_church_construction = yes
		prestige_from_temple_construction = yes
		build_bonuses_on_religious_traits = yes
	}
	character_modifier = {
		ai_zeal = 25
	}
	
	cost = {
		prestige = {
			add = {
				value = tradition_base_cost
				desc = BASE
				format = "BASE_VALUE_FORMAT"
			}
			if = {
				limit = {
					NOR = {
						any_in_list = { list = traits this = flag:ethos_communal }
						any_in_list = { list = traits this = flag:ethos_spiritual }
						any_in_list = { list = traits this = flag:ethos_stoic }
					}
				}
				add = {
					value = tradition_incompatible_ethos_penalty
					desc = not_communal_spiritual_or_stoic_desc
				}
			}
			if = {
				limit = {
					trigger_if = {
						limit = {
							scope:character = {
								is_ai = no
							}
						}
						NOT = {
							any_ruler = {
								count >= 5
								culture = prev
								primary_title.tier >= tier_county
								faith = scope:character.faith
								has_trait = zealous
							}
						}
					}
					trigger_else = {
						always = no
					}
				}
				add = {
					value = tradition_unfulfilled_criteria_penalty
					desc = rulers_with_same_faith_zealous_desc
				}
			}
			
			multiply = tradition_replacement_cost_if_relevant
		}
	}
	
	ai_will_do = {
		value = 100
		if = {
			limit = {
				scope:character = {
					has_government = tribal_government
				}
			}
			multiply = 0
		}
	}
}

tradition_agrarian = {
	category = realm

	layers = {
		0 = steward
		1 = indian
		4 = farmland.dds
	}
	
	can_pick = {
		custom_tooltip = {
			text = culture_in_farmlands_or_floodplains_terrain_desc
			any_culture_county = {
				any_county_province = {
					OR = {
						terrain = farmlands
						terrain = floodplains
					}
				}
			}
		}
	}
	
	parameters = {
		content_trait_more_common = yes
		martial_education_worse_outcomes = yes
		hard_working_traits_more_valued = yes
	}
	character_modifier = {
		men_at_arms_recruitment_cost = 0.25
		prowess = -2
	}
	county_modifier = {
		farmlands_development_growth_factor = 0.3
		farmlands_construction_gold_cost = -0.2
		floodplains_development_growth_factor = 0.3
		floodplains_construction_gold_cost = -0.2
		farmlands_levy_size = 0.1
		floodplains_levy_size = 0.1
	}
	
	cost = {
		prestige = {
			add = {
				value = tradition_base_cost
				desc = BASE
				format = "BASE_VALUE_FORMAT"
			}
			if = {
				limit = {
					any_in_list = { list = traits this = flag:ethos_bellicose }
				}
				add = {
					value = tradition_incompatible_ethos_penalty
					desc = culture_not_bellicose
				}
			}
			if = {
				limit = {
					NOT = {
						any_culture_county = {
							count >= 5
							any_county_province = {
								OR = {
									terrain = farmlands
									terrain = floodplains
								}
							}
						}
					}
				}
				add = {
					value = tradition_unfulfilled_criteria_penalty
					desc = culture_in_farmlands_or_floodplains_terrain_count_desc
				}
			}
			
			multiply = tradition_replacement_cost_if_relevant
		}
	}
	
	ai_will_do = {
		value = 100
		if = {
			limit = {
				NOT = {
					scope:character = {
						any_sub_realm_county = {
							count >= 2
							culture = scope:character.culture
							any_county_province = {
								OR = {
									terrain = farmlands
									terrain = floodplains
								}
							}
						}
					}
				}
			}
			multiply = 0
		}
		if = {
			limit = {
				scope:character = {
					has_government = tribal_government
				}
			}
			multiply = 0
		}
	}
}

tradition_pastoralists = {
	category = realm

	layers = {
		0 = steward
		1 = mena
		4 = horses.dds
	}
	
	can_pick = {
		custom_tooltip = {
			text = culture_in_plains_or_steppe_terrain_desc
			any_culture_county = {
				percent >= 0.4
				any_county_province = {
					terrain = plains
				}
			}
		}
	}
	
	parameters = {
		pastures_building_bonuses = yes
	}
	character_modifier = {
		negate_health_penalty_add = 0.15
		prowess = 1
	}
	
	cost = {
		prestige = {
			add = {
				value = tradition_base_cost
				desc = BASE
				format = "BASE_VALUE_FORMAT"
			}
			if = {
				limit = {
					NOR = {
						any_in_list = { list = traits this = flag:ethos_bellicose }
						any_in_list = { list = traits this = flag:ethos_stoic }
						any_in_list = { list = traits this = flag:ethos_communal }
					}
				}
				add = {
					value = tradition_incompatible_ethos_penalty
					desc = not_bellicose_stoic_or_communal_desc
				}
			}
			if = {
				limit = {
					NOT = {
						any_culture_county = {
							percent >= 0.6
							any_county_province = {
								terrain = plains
							}
						}
					}
				}
				add = {
					value = tradition_unfulfilled_criteria_penalty
					desc = culture_in_plains_or_steppe_terrain_percentage_desc
				}
			}
			
			multiply = tradition_replacement_cost_if_relevant
		}
	}
	
	ai_will_do = {
		value = 100
		if = {
			limit = {
				NOT = {
					scope:character = {
						any_sub_realm_county = {
							percent >= 0.6
							culture = scope:character.culture
							any_county_province = {
								terrain = plains
							}
						}
					}
				}
			}
			multiply = 0
		}
	}
}

tradition_ruling_caste = {
	category = realm

	layers = {
		0 = intrigue
		1 = mediterranean
		4 = king.dds
	}
	
	parameters = {
		peasant_and_populist_factions_less_common = yes
	}
	culture_modifier = {
		cultural_acceptance_gain_mult = -0.25
	}
	character_modifier = {
		dread_per_tyranny_add = 0.3
		dread_decay_mult = -0.3
		revolting_siege_morale_loss_mult = 0.25
	}
	
	cost = {
		prestige = {
			add = {
				value = tradition_base_cost
				desc = BASE
				format = "BASE_VALUE_FORMAT"
			}
			if = {
				limit = {
					NOR = {
						any_in_list = { list = traits this = flag:ethos_spiritual }
						any_in_list = { list = traits this = flag:ethos_courtly }
					}
				}
				add = {
					value = tradition_incompatible_ethos_penalty
					desc = not_spiritual_or_courtly_desc
				}
			}
			if = {
				limit = {
					scope:character = {
						any_councillor = {
							NOR = {
								culture = scope:character.culture
								is_spouse_of = scope:character # Might be hard to have the right culture for the Spouse; but we can remove this helper if needed
							}
						}
					}
				}
				add = {
					value = tradition_unfulfilled_criteria_penalty
					desc = has_other_cultures_in_council_desc
				}
			}
			
			multiply = tradition_replacement_cost_if_relevant
		}
	}
	
	ai_will_do = { 
		value = 100
		if = {
			limit = {
				scope:character.dread < 25
			}
			multiply = 0.5
		}
		if = {
			limit = {
				scope:character.tyranny < 25
			}
			multiply = 0.5
		}
	}
}

tradition_staunch_traditionalists = {
	category = realm

	layers = {
		0 = intrigue
		1 = western
		4 = king.dds
	}
	
	is_shown = {
		has_dlc_feature = hybridize_culture
	}
	can_pick = {
	}
	
	parameters = {
		stubborn_trait_more_common = yes
		expensive_convert_to_local_culture = yes
		harder_to_hybridize = yes
	}
	character_modifier = {
		controlled_province_advantage = 5
		monthly_county_control_change_add = 0.3
		cultural_head_fascination_mult = -0.1
	}
	
	cost = {
		prestige = {
			add = {
				value = tradition_base_cost
				desc = BASE
				format = "BASE_VALUE_FORMAT"
			}
			if = {
				limit = {
					NOR = {
						any_in_list = { list = traits this = flag:ethos_communal }
						any_in_list = { list = traits this = flag:ethos_spiritual }
						any_in_list = { list = traits this = flag:ethos_stoic }
					}
				}
				add = {
					value = tradition_incompatible_ethos_penalty
					desc = not_communal_spiritual_or_stoic_desc
				}
			}
			if = {
				limit = {
					scope:character = {
						any_sub_realm_county = {
							NOT = {
								culture = scope:character.culture
							}
						}
					}
				}
				add = {
					value = tradition_unfulfilled_criteria_penalty
					desc = has_other_cultures_in_realm_desc
				}
			}
			
			multiply = tradition_replacement_cost_if_relevant
		}
	}
	
	ai_will_do = {
		value = 100
		if = {
			limit = {
				NOT = {
					is_divergent_culture = yes
				}
			}
			multiply = 0
		}
		if = {
			limit = {
				any_in_list = { list = traits this = flag:ethos_egalitarian }
			}
			multiply = 0
		}
	}
}

tradition_hill_dwellers = {
	category = realm

	layers = {
		0 = steward
		1 = indian
		4 = desert_mountains.dds
	}

	is_shown = { 
	}
	can_pick = {
		custom_description = {
			text = culture_in_hills_desc
			any_culture_county = {
				any_county_province = {
					OR = {
						terrain = hills
						terrain = desert_hills
					}
				}
			}
		}
	}
	
	parameters = {
		hill_farms_building_bonuses = yes
	}
	character_modifier = {
	}
	county_modifier = {
		hills_development_growth_factor = 0.2
	}
	province_modifier = {
		hills_construction_gold_cost = -0.15
		hills_holding_construction_gold_cost = -0.15
	}
	
	cost = {
		prestige = {
			add = {
				value = tradition_base_cost
				desc = BASE
				format = "BASE_VALUE_FORMAT"
			}
			if = {
				limit = {
					any_in_list = { list = traits this = flag:ethos_bellicose }
				}
				add = {
					value = tradition_incompatible_ethos_penalty
					desc = culture_not_bellicose
				}
			}
			if = {
				limit = {
					NOT = {
						any_culture_county = {
							percent >= 0.3
							any_county_province = {
								OR = {
									terrain = hills
									terrain = desert_hills
								}
							}
						}
					}
				}
				add = {
					value = tradition_unfulfilled_criteria_penalty
					desc = hill_percentage_desc
				}
			}
			
			multiply = tradition_replacement_cost_if_relevant
		}
	}
	
	ai_will_do = {
		value = 100
		if = {
			limit = {
				NOT = {
					scope:character = {
						any_sub_realm_county = {
							percent >= 0.2
							culture = scope:character.culture
							any_county_province = {
								OR = {
									terrain = hills
									terrain = desert_hills
								}
							}
						}
					}
				}
			}
			multiply = 0
		}
	}
}

tradition_forest_folk = {
	category = realm

	layers = {
		0 = steward
		1 = mena
		4 = forest.dds
	}

	is_shown = {
	}
	can_pick = {
		custom_description = {
			text = culture_in_forest_desc
			any_culture_county = {
				any_county_province = {
					terrain = forest
				}
			}
		}
	}
	
	parameters = {
		logging_camps_building_bonuses = yes
	}
	character_modifier = {
	}
	county_modifier = {
		forest_development_growth_factor = 0.15
		taiga_development_growth_factor = 0.15
	}
	province_modifier = {
		forest_construction_gold_cost = -0.15
		taiga_construction_gold_cost = -0.15
		forest_holding_construction_gold_cost = -0.15
		taiga_holding_construction_gold_cost = -0.15
	}
	
	cost = {
		prestige = {
			add = {
				value = tradition_base_cost
				desc = BASE
				format = "BASE_VALUE_FORMAT"
			}
			if = {
				limit = {
					any_in_list = { list = traits this = flag:ethos_bellicose }
				}
				add = {
					value = tradition_incompatible_ethos_penalty
					desc = culture_not_bellicose
				}
			}
			if = {
				limit = {
					NOT = {
						any_culture_county = {
							percent >= 0.3
							any_county_province = {
								terrain = forest
							}
						}
					}
				}
				add = {
					value = tradition_unfulfilled_criteria_penalty
					desc = forest_percentage_desc
				}
			}
			
			multiply = tradition_replacement_cost_if_relevant
		}
	}
	
	ai_will_do = {
		value = 100
		if = {
			limit = {
				NOT = {
					scope:character = {
						any_sub_realm_county = {
							percent >= 0.2
							culture = scope:character.culture
							any_county_province = {
								terrain = forest
							}
						}
					}
				}
			}
			multiply = 0
		}
	}
}

tradition_mountain_homes = {
	category = realm

	layers = {
		0 = steward
		1 = mena
		4 = mountain.dds
	}
	
	is_shown = {
	}
	can_pick = {
		custom_description = {
			text = culture_in_mountains_desc
			any_culture_county = {
				any_county_province = {
					OR = {
						terrain = mountains
						terrain = desert_mountains
						terrain = mountain_valley
					}
				}
			}
		}
	}

	parameters = {
		quarries_building_bonuses = yes
		prestige_gain_on_building_complete_in_mountains = yes
	}
	character_modifier = {
	}
	county_modifier = {
		mountains_development_growth_factor = 0.2
		desert_mountains_development_growth_factor = 0.35
	}
	province_modifier = {
		mountains_construction_gold_cost = -0.15
		desert_mountains_construction_gold_cost = -0.15
		mountains_holding_construction_gold_cost = -0.15
		desert_mountains_holding_construction_gold_cost = -0.15
	}
	
	cost = {
		prestige = {
			add = {
				value = tradition_base_cost
				desc = BASE
				format = "BASE_VALUE_FORMAT"
			}
			if = {
				limit = {
					any_in_list = { list = traits this = flag:ethos_bellicose }
				}
				add = {
					value = tradition_incompatible_ethos_penalty
					desc = culture_not_bellicose
				}
			}
			if = {
				limit = {
					NOT = {
						any_culture_county = {
							percent >= 0.3
							any_county_province = {
								OR = {
									terrain = mountains
									terrain = desert_mountains
									terrain = mountain_valley
								}
							}
						}
					}
				}
				add = {
					value = tradition_unfulfilled_criteria_penalty
					desc = mountain_percentage_desc
				}
			}
			
			multiply = tradition_replacement_cost_if_relevant
		}
	}
	
	ai_will_do = {
		value = 100
		if = {
			limit = {
				NOT = {
					scope:character = {
						any_sub_realm_county = {
							percent >= 0.2
							culture = scope:character.culture
							any_county_province = {
								OR = {
									terrain = mountains
									terrain = desert_mountains
									terrain = mountain_valley
								}
							}
						}
					}
				}
			}
			multiply = 0
		}
	}
}

tradition_dryland_dwellers = {
	category = realm

	layers = {
		0 = steward
		1 = mena
		4 = desert.dds
	}
	
	can_pick = {
		custom_description = {
			text = culture_in_dryland_desc
			any_culture_county = {
				any_county_province = {
					OR = {
						terrain = drylands
						terrain = desert
						terrain = desert_hills
					}
				}
			}
		}
	}
	
	parameters = {
		plantations_building_bonuses = yes
	}
	character_modifier = {
	}
	county_modifier = {
		desert_development_growth_factor = 0.35
		drylands_development_growth_factor = 0.15
	}
	province_modifier = {
		desert_construction_gold_cost = -0.15
		drylands_construction_gold_cost = -0.15
		desert_holding_construction_gold_cost = -0.15
		drylands_holding_construction_gold_cost = -0.15
	}
	
	cost = {
		prestige = {
			add = {
				value = tradition_base_cost
				desc = BASE
				format = "BASE_VALUE_FORMAT"
			}
			if = {
				limit = {
					any_in_list = { list = traits this = flag:ethos_bellicose }
				}
				add = {
					value = tradition_incompatible_ethos_penalty
					desc = culture_not_bellicose
				}
			}
			if = {
				limit = {
					NOT = {
						any_culture_county = {
							percent >= 0.3
							any_county_province = {
								OR = {
									terrain = drylands
									terrain = desert
									terrain = desert_hills
								}
							}
						}
					}
				}
				add = {
					value = tradition_unfulfilled_criteria_penalty
					desc = dry_percentage_desc
				}
			}
			
			multiply = tradition_replacement_cost_if_relevant
		}
	}
	
	ai_will_do = {
		value = 100
		if = {
			limit = {
				NOT = {
					scope:character = {
						any_sub_realm_county = {
							percent >= 0.2
							culture = scope:character.culture
							any_county_province = {
								OR = {
									terrain = drylands
									terrain = desert
									terrain = desert_hills
								}
							}
						}
					}
				}
			}
			multiply = 0
		}
	}
}

tradition_wetlanders = {
	category = realm

	layers = {
		0 = diplo
		1 = western
		4 = svamp.dds
	}
	
	can_pick = {
		custom_tooltip = {
			text = culture_in_wetlands_desc
			any_culture_county = {
				any_county_province = {
					terrain = wetlands
				}
			}
		}
	}
	
	parameters = {
		peat_quarries_building_bonuses = yes
	}
	character_modifier = {
		wetlands_advantage = 10
	}
	county_modifier = {
		wetlands_development_growth_factor = 0.25
	}
	province_modifier = {
		wetlands_construction_gold_cost = -0.25
		wetlands_holding_construction_gold_cost = -0.25
		wetlands_levy_size = 0.1
		wetlands_supply_limit_mult = 0.25
	}
	
	cost = {
		prestige = {
			add = {
				value = tradition_base_cost
				desc = BASE
				format = "BASE_VALUE_FORMAT"
			}
			if = {
				limit = {
					any_in_list = { list = traits this = flag:ethos_bellicose }
				}
				add = {
					value = tradition_incompatible_ethos_penalty
					desc = culture_not_bellicose
				}
			}
			if = {
				limit = {
					NOT = {
						any_culture_county = {
							count >= 3
							any_county_province = {
								terrain = wetlands
							}
						}
					}
				}
				add = {
					value = tradition_unfulfilled_criteria_penalty
					desc = culture_in_wetlands_count_desc
				}
			}
			
			multiply = tradition_replacement_cost_if_relevant
		}
	}
	
	ai_will_do = {
		value = 100
		if = {
			limit = {
				NOT = {
					scope:character = {
						any_sub_realm_county = {
							count >= 3
							culture = scope:character.culture
							any_county_province = {
								terrain = wetlands
							}
						}
					}
				}
			}
			multiply = 0
		}
	}
}

tradition_ancient_miners = {
	category = realm

	is_shown = {
		always = no
	}
	
	layers = {
		0 = martial
		1 = mediterranean
		4 = tools.dds
	}
	
	parameters = {
		quarries_building_bonuses = yes
		can_build_quarries_in_hills = yes
	}
	
	cost = {
		prestige = {
			add = {
				value = tradition_base_cost
				desc = BASE
				format = "BASE_VALUE_FORMAT"
			}
			
			multiply = tradition_replacement_cost_if_relevant
		}
	}
	
	ai_will_do = {
		value = 100
		if = {
			limit = {
				NOT = {
					scope:character = {
						any_sub_realm_county = {
							culture = scope:character.culture
							any_county_province = {
								terrain = hills
							}
						}
					}
				}
			}
			multiply = 0
		}
	}
}

tradition_maritime_mercantilism = {
	category = realm

	layers = {
		0 = diplo
		1 = mediterranean
		4 = ship.dds
	}
	
	can_pick = {
		custom_description = {
			text = culture_on_coast_desc
			any_culture_county = {
				any_county_province = {
					is_coastal = yes
				}
			}
		}
	}
	
	parameters = {
		next_level_trade_ports = yes
		maritime_mercantilism_coastal_holdings = yes
	}
	character_modifier = {
		#republic_government_vassal_opinion = 10
	}
	
	cost = {
		prestige = {
			add = {
				value = tradition_base_cost
				desc = BASE
				format = "BASE_VALUE_FORMAT"
			}
			# Ethos requirement.
			if = {
				limit = {
					NOR = {
						any_in_list = { list = traits this = flag:ethos_egalitarian }
						any_in_list = { list = traits this = flag:ethos_stoic }
						any_in_list = { list = traits this = flag:ethos_bureaucratic }
					}
				}
				add = {
					value = tradition_incompatible_ethos_penalty
					desc = not_egalitarian_stoic_or_bureaucratic_desc
				}
			}
			# Coastal requirement.
			if = {
				limit = {
					NOT = {
						any_culture_county = {
							percent >= 0.3
							any_county_province = {
								is_coastal = yes
							}
						}
					}
				}
				add = {
					value = tradition_unfulfilled_criteria_penalty
					desc = coastal_percentage_desc
				}
			}
			
			multiply = tradition_replacement_cost_if_relevant
		}
	}
	
	ai_will_do = {
		value = 100
		if = {
			limit = {
				scope:character = {
					any_sub_realm_county = {
						percent >= 0.6
						any_county_province = {
							is_coastal = yes
						}
					}
				}
			}
			add = 50
		}
		if = { # Make stacking a bit less common
			limit = {
				OR = {
					any_in_list = { list = traits this = flag:tradition_seafaring }
					any_in_list = { list = traits this = flag:tradition_fishermen }
				}
			}
			multiply = 0.75
		}
		if = {
			limit = {
				NOT = {
					scope:character = {
						any_sub_realm_county = {
							percent >= 0.3
							any_county_province = {
								is_coastal = yes
							}
						}
					}
				}
			}
			multiply = 0
		}
	}
}