﻿# character just about to die in root scope
# if a killer is know, it's set as scope:killer
#Triggered by code

on_death = {
	effect = {
		play_music_cue = "mx_cue_death"

		add_character_flag = { flag = about_to_die_but_not_dead_yet_flag } # Used in perk calc

		if = {
			limit = {
				exists = player_heir
			}
			player_heir = {
				apply_hold_court_grace_effect = yes
			}
			if = {
				limit = {
					is_ai = no
				}
				player_heir = {
					add_character_flag = {
						flag = tutorial_reactive_advice_succession
					}
				}
				if = {
					limit = {
						has_royal_court = yes
						any_sponsored_inspiration = { count >= 1 }
					}
					save_scope_as = old_ruler
					every_sponsored_inspiration = { add_to_list = inherited_inspiration_list }
					player_heir = {
						trigger_event = { id = fund_inspiration.9005 days = 5 }
					}
				}
			}
		}
		
		if = { # Lower Grandeur a little bit on death
			limit = {
				has_royal_court = yes
				exists = primary_heir
				primary_heir = {
					has_royal_court = no
				}
			}
			change_current_court_grandeur = grandeur_loss_on_succession_value
		}
		
		if = { # Grandeur in elective realms
			limit = {
				has_royal_court = yes
				exists = primary_heir
				primary_heir = {
					has_royal_court = no
				}
				primary_title = {
					has_order_of_succession = election
				}
			}
			primary_heir = {
				set_variable = {
					name = previous_holder_grandeur_value
					value = prev.court_grandeur_current
				}
			}
		}

		invalidate_claimant_factions_on_death_effect = yes

		# Event Setup
		## FP1: Rumoured Draugr - fp1_yearly.0051
		if = {
			limit = {
				#DLC check.
				has_fp1_dlc_trigger = yes
				#Must be within the player's court.
				is_knight = yes
				court_owner = { is_ai = no }
				#Must be an intimidating fighter.
				prowess >= extremely_high_skill_rating
				#Aaaaand must have a personality that makes people think they'd come back to harass the living.
				calc_true_if = {
					amount >= 2
					has_trait = wrathful
					has_trait = arrogant
					has_trait = deceitful
					has_trait = craven
					has_trait = ambitious
					has_trait = arbitrary
					has_trait = cynical
					has_trait = vengeful
					has_trait = sadistic
				}
			}
			save_scope_as = potential_draugr
			court_owner = {
				set_variable = {
					name = potential_draugr
					value = scope:potential_draugr
					years = 5
				}
			}
		}

		# Might later be rumored to haunt the location in a court event
		if = {
			limit = {
				OR = {
					AND = {
						exists = capital_province
						location = capital_province
						exists = player_heir
						OR = {
							any_close_family_member = { this = root.player_heir }
							any_spouse = { this = root.player_heir }
						}
					}
					AND = {
						exists = court_owner
						court_owner = {
							is_ai = no
							exists = capital_province
						}
						location = court_owner.capital_province
						OR = {
							any_close_family_member = { this = root.court_owner }
							any_spouse = { this = root.court_owner }
						}
					}
				}
			}
			location = {
				set_variable = {
					name = possible_haunting
					value = prev
					years = 100
				}
			}
		}

		if = {
			limit = { has_royal_court = yes }
			# Clear pay homage once-per-liege grace
			every_vassal = {
				if = {
					limit = { has_variable = homage_type }
					remove_variable = homage_type
				}
			}
			# Check equipped artifacts
			if = {
				limit = {
					any_equipped_character_artifact = { ep1_artifact_is_court_artifact_trigger = yes }
				}
				every_equipped_character_artifact = {
					limit = { ep1_artifact_is_court_artifact_trigger = yes }
					set_variable = equipped_court_succession
				}
			}
		}

		# Ritual best friends have a bad, bad, *bad* time.
		if = {
			limit = {
				valid_ritualised_best_friendship_one_way_trigger = { ACTOR_FRIEND = root }
			}
			random_relation = {
				type = best_friend
				limit = { culture_valid_for_ritualised_best_friends_trigger = yes }
				# Save a flag for the death management event's ease.
				add_character_flag = dead_ritual_best_friend
			}
		}

		# Best friend loses synergy
		if = {
			limit = { has_any_best_friend_synergy_bonus_modifier_trigger = yes }
			remove_every_best_friend_synergy_bonus_modifier_effect = yes
		}
		random_relation = {
			type = best_friend
			if = {
				limit = { has_any_best_friend_synergy_bonus_modifier_trigger = yes }
				remove_every_best_friend_synergy_bonus_modifier_effect = yes
			}
		}

		# Struggle Catalyst
		if = {
			limit = {
				# we verify that the death is not natural
				exists = scope:killer
				is_important_or_vip_struggle_character = yes
				any_character_struggle = {
					involvement = involved
					phase_has_catalyst = catalyst_unnatural_death_important_character
				}
			}
			every_character_struggle = {
				involvement = involved
				activate_struggle_catalyst = {
					catalyst = catalyst_unnatural_death_important_character
					character = root
				}
			}
		}
	}
	events = {
		death_management.0096	# Updates marriage opinions of other spouses if relevant.
		death_management.0097	# Sets a flag if the dead one was someone you loved (to make suicide available)
		death_management.0098 	# Removes rejected_from_marriage_bed_modifier if spouse dies
		death_management.0099 	# If spouse is pregnant, save as variable
		death_management.0001 	# Finds characters which would care about death for notifications etc.
		intrigue_dread.4012		# Interrupts this event chain for the imprisoner when their prisoner dies.
		stewardship_duty.1065 	# Removes the patron buff from their employer when this character dies.
		stewardship_duty.1067 	# When you die removes your clients fron your court.
		great_holy_war.0024		# Replace recipient for ongoing GHW.
		great_holy_war.0028 	# Beneficiary died, reset and replace.
		great_holy_war.0080 	# ghw_sponsor died, replace.
		great_holy_war.0083		# ghw fallback beneficiary dies.
		religious_decision.0301 # ancestor died and needs to be buried.
		religious_decision.0311 # Dynasty member has died and you can raise a runestone
		game_rule.2				# Exclave Independence
		martial_authority.2057	# Right-Hand Person Dies 
		martial_authority.2055  # Right-handed Person (person with right-hand) Died
		fp1_yearly.0052			# FP1: Rumoured Draugr
		fp1_yearly.1061			# FP1: Ship Burial
		fp1_other_decisions.0062	# FP1: someone intending to HumSac you has died
		fp1_other_decisions.0063	# FP1: designated HumSac has died
		fp1_other_decisions.0064	# FP1: remove counties offended by HumSac modifier
		death_management.1002	# Sound Foundations stat removal
		death_management.1003	# Friendly Counsel stat removal
	}
}

# Root = character
# Triggered when someone is about to die from a natural death but is given a second chance by meeting
# the has_natural_death_second_chance scripted rule
on_natural_death_second_chance = {
	effect = {
		add_character_flag = {
			flag = know_thyself_perk_delay_period
			days = 390
		}
		add_character_flag = know_thyself_has_triggered_delay
		trigger_event = death_management.9998
		trigger_event = {
			id = death_management.9999
			days = { 340 380 }
		}
	}
}
