﻿egyptian_legacy_track = {
	is_shown = {
		dynasty = {
			OR = {
				dynast.culture = {
					has_cultural_pillar = heritage_kemetic
				}
				has_dynasty_perk = egyptian_legacy_1
			}
		}
	}
}

maryannu_legacy_track = {
 
}
