﻿#Scripted effects relating to education

#####################################################################
# EFFECT LIST
#####################################################################
# !!! Remember to add all new effects with a short description here !!!

#education_point_acquisition_effect - Rolls a random chance for assigning education points based on a number of factors. Run in a pulse event every half year of childhood.

#education_complete_notification_effect - Identifies characters for the "Education Completed" notification events and sends the events.

#save_childhood_trait_as_variable_effect - Saves childhood trait as a variable flag

#assign_commander_trait_effect - To assign a commander trait to a child with a martial education

#wrap_up_education_effect - Additional effects run to wrap up education

#rank_up_education_effect - Increases your education by 1 rank unless it's at 4 (or you don't have any)

######################################################################
# EFFECTS
######################################################################


#Education point acquisition

education_point_acquisition_effect = {
	if = {
		limit = { has_focus = education_diplomacy }
		education_point_acquisition_support_effect = { SKILL = diplomacy }
	}
	else_if = {
		limit = { has_focus = education_martial }
		education_point_acquisition_support_effect = { SKILL = martial }
	}
	else_if = {
		limit = { has_focus = education_stewardship }
		education_point_acquisition_support_effect = { SKILL = stewardship }
	}
	else_if = {
		limit = { has_focus = education_intrigue }
		education_point_acquisition_support_effect = { SKILL = intrigue }
	}
	else_if = {
		limit = { has_focus = education_learning }
		education_point_acquisition_support_effect = { SKILL = learning }
	}
}


education_point_acquisition_support_effect = {
	#Save educator
	if = {
		limit = {
			any_relation = {
				type = guardian
				always = yes
			}
		}
		random_relation = {
			type = guardian
			save_scope_as = educator
		}
	}

	#Set variables if they don't exist
	if = {
		limit = {
			NOT = { has_variable = education_$SKILL$_variable }
		}
		set_variable = {
			name = education_$SKILL$_variable
			value = 0
		}
	}

	#Randomize success or failure
	random_list = {
		#Success
		60 = {
			#Child intelligence
			modifier = {
				has_trait = intellect_good_3
				add = 20
			}
			modifier = {
				has_trait = intellect_good_2
				add = 15
			}
			modifier = {
				OR = {
					has_trait = intellect_good_1
					has_trait = shrewd
				}
				add = 10
			}
			#Educator intelligence & skill
			modifier = {
				exists = scope:educator
				add = {
					#Intelligence
					if = {
						limit = { scope:educator = { has_trait = intellect_good_3 } }
						value = 15
					}
					else_if = {
						limit = { scope:educator = { has_trait = intellect_good_2 } }
						value = 10
					}
					else_if = {
						limit = {
							scope:educator = {
								OR = {
									has_trait = intellect_good_1
									has_trait = shrewd
								}
							}
						}
						value = 5
					}
					#Specific skill
					add = {
						value = scope:educator.$SKILL$
						multiply = educator_skill_modifier_factor
					}
					#Learning skill
					add = {
						value = scope:educator.learning
						multiply = educator_learning_skill_modifier_factor
					}
					#Storyteller tradition
					if = {
						limit = { scope:educator.culture = { has_cultural_parameter = better_ward_education } }
						value = 10
					}
				}
			}
			
			#Affinity
			modifier = {
				has_$SKILL$_education_affinity_childhood_trait_trigger = yes
				add = matching_childhood_trait_modifier_value
			}

			#Disaffinity
			modifier = {
				has_$SKILL$_education_disaffinity_childhood_trait_trigger = yes
				add = mismatching_childhood_trait_modifier_value
			}
			
			change_variable = {
				name = education_$SKILL$_variable
				add = 2
			}
		}
		#Failure
		40 = {
			#Child intelligence
			modifier = {
				OR = {
					has_trait = intellect_bad_3
					has_trait = inbred
				}
				add = 20
			}
			modifier = {
				has_trait = intellect_bad_2
				add = 15
			}
			modifier = {
				OR = {
					has_trait = intellect_bad_1
					has_trait = dull
				}
				add = 10
			}

			#Educator intelligence & skill
			modifier = {
				exists = scope:educator
				add = {
					#Intelligence
					if = {
						limit = { scope:educator = { has_trait = intellect_bad_3 } }
						value = 15
					}
					else_if = {
						limit = { scope:educator = { has_trait = intellect_bad_2 } }
						value = 10
					}
					else_if = {
						limit = {
							scope:educator = {
								OR = {
									has_trait = intellect_bad_1
									has_trait = dull
								}
							}
						}
						value = 5
					}
				}
			}
			modifier = {
				add = 20
				NOT = {
					exists = scope:educator
				}
			}
		}
	}
}


#Effect to identify characters for the "Education Completed" notification events
education_complete_notification_effect = {
	save_scope_as = educated_child
	if = {
		limit = {
			num_of_relation_guardian >= 1
		}
		random_relation = {
			type = guardian
			if = {
				limit = { this = { is_parent_of = root } }
				save_scope_as = parent_guardian
				trigger_event = coming_of_age.1001
			}
			else = {
				save_scope_as = guardian
				if = {
					limit = {
						scope:educated_child = {
							any_parent = { is_alive = no }
							any_parent = { is_alive = yes }
						}
					}
					random_parent = {
						limit = { is_alive = yes }
						save_scope_as = living_parent
					}
					random_parent = {
						limit = { is_alive = no }
						save_scope_as = dead_parent
					}
					trigger_event = coming_of_age.1003 #Event for non-parent guardian when one parent of the child is dead
				}
				else_if = {
					limit = {
						scope:educated_child = {
							any_parent = {
								is_alive = yes
								count = 2
							}
						}
					}
					scope:educated_child.father = { save_scope_as = father }
					scope:educated_child.mother = { save_scope_as = mother }
					trigger_event = coming_of_age.1004 #Event for non-parent guardian when both parents are alive
				}
				else_if = {
					limit = {
						OR = {
							NOT = { exists = scope:educated_child.father }
							NOT = { exists = scope:educated_child.mother }
						}
					}
					if = {
						limit = {
							exists = scope:educated_child.father
						}
						scope:educated_child.father = {
							save_scope_as = parent
						}
					}
					if = {
						limit = {
							exists = scope:educated_child.mother
						}
						scope:educated_child.mother = {
							save_scope_as = parent
						}
					}
					if = {
						limit = {
							NOT = { exists = scope:parent }
						}
						trigger_event = coming_of_age.1005
					}
					trigger_event = coming_of_age.1003
				}
				else = {
					scope:educated_child.father = { save_scope_as = father }
					scope:educated_child.mother = { save_scope_as = mother }
					trigger_event = coming_of_age.1005 #Event for non-parent guardian when both parents are dead
				}
			}

			#Relationship back-up clean-up
			if = {
				limit = {
					has_relation_ward = scope:educated_child
				}
				remove_relation_ward = scope:educated_child
			}
		}
	}
	every_parent = {
		limit = {
			OR = {
				NOT = { exists = scope:parent_guardian }
				AND = {
					exists = scope:parent_guardian
					NOT = { this = scope:parent_guardian }
				}
			}
		}
		trigger_event = coming_of_age.1002
	}
}

#To extract and save event_targets to use in coming_of_age notification event
save_event_targets_from_childhood_effect = {
	if = {
		limit = {
			any_relation = { type = friend always = yes }
		}
		random_relation = {
			type = friend
			save_scope_as = friend
		}
	}
	if = {
		limit = {
			exists = var:had_childhood_crush_variable
		}
		var:had_childhood_crush_variable = {
			save_scope_as = crush
		}
	}
	if = {
		limit = {
			exists = var:had_childhood_bully_variable
		}
		var:had_childhood_bully_variable = {
			save_scope_as = bully
		}
	}
	if = {
		limit = {
			exists = var:had_childhood_victim_variable
		}
		var:had_childhood_victim_variable = {
			save_scope_as = victim
		}
	}
}

#To assign a commander trait (based on culture, faith, etc.) to a child with a martial education
assign_commander_trait_effect = {
	random_list = {
		100 = {
			trigger = { NOT = { has_trait = logistician } }
			add_trait = logistician
		}
		100 = {
			trigger = { NOT = { has_trait = military_engineer } }
			add_trait = military_engineer
		}
		100 = {
			trigger = { NOT = { has_trait = aggressive_attacker } }
			add_trait = aggressive_attacker
		}
		100 = {
			trigger = { NOT = { has_trait = unyielding_defender } }
			add_trait = unyielding_defender
		}
		100 = {
			trigger = { NOT = { has_trait = forder } }
			add_trait = forder
		}
		100 = {
			trigger = { NOT = { has_trait = flexible_leader } }
			add_trait = flexible_leader
		}
		100 = {
			trigger = {
				NOT = { has_trait = desert_warrior }
				OR = {
					any_directly_owned_province = {
						terrain = desert
					}
					AND = {
						exists = scope:educator
						scope:educator = {
							any_directly_owned_province = {
								terrain = desert
							}
						}
					}
					AND = {
						NOT = { exists = scope:educator }
						exists = liege
						liege = {
							any_directly_owned_province = {
								terrain = desert
							}
						}
					}
				}
			}
			modifier = {
				culture = {
					has_cultural_parameter = desert_warrior_trait_more_common
				}
				factor = 2
			}
			add_trait = desert_warrior
		}
		100 = {
			trigger = {
				NOT = { has_trait = jungle_stalker }
				OR = {
					any_directly_owned_province = {
						terrain = jungle
					}
					AND = {
						exists = scope:educator
						scope:educator = {
							any_directly_owned_province = {
								terrain = jungle
							}
						}
					}
					AND = {
						NOT = { exists = scope:educator }
						exists = liege
						liege = {
							any_directly_owned_province = {
								terrain = jungle
							}
						}
					}
				}
			}
			modifier = {
				culture = {
					has_cultural_parameter = jungle_stalker_trait_more_common
				}
				factor = 2
			}
			add_trait = jungle_stalker
		}
		100 = {
			trigger = { NOT = { has_trait = reaver } }
			add_trait = reaver
		}
		100 = {
			trigger = { NOT = { has_trait = reckless } }
			add_trait = reckless
		}
		100 = {
			trigger = {
				culture = {
					has_cultural_parameter = forest_fighter_trait_more_common
				}
				NOT = { has_trait = forest_fighter }
				OR = {
					any_directly_owned_province = {
						OR = {
							terrain = forest
							terrain = taiga
						}
					}
					AND = {
						exists = scope:educator
						scope:educator = {
							any_directly_owned_province = {
								OR = {
									terrain = forest
									terrain = taiga
								}
							}
						}
					}
					AND = {
						NOT = { exists = scope:educator }
						exists = liege
						liege = {
							any_directly_owned_province = {
								OR = {
									terrain = forest
									terrain = taiga
								}
							}
						}
					}
				}
			}
			modifier = {
				culture = {
					has_cultural_parameter = forest_fighter_trait_more_common
				}
				factor = 2
			}
			add_trait = forest_fighter
		}
		100 = {
			trigger = {
				culture = {
					has_cultural_parameter = rough_terrain_expert_trait_more_common
				}
				NOT = { has_trait = rough_terrain_expert }
				OR = {
					any_directly_owned_province = {
						OR = {
							terrain = mountains
							terrain = hills
							terrain = wetlands
						}
					}
					AND = {
						exists = scope:educator
						scope:educator = {
							any_directly_owned_province = {
								OR = {
									terrain = mountains
									terrain = hills
									terrain = wetlands
								}
							}
						}
					}
					AND = {
						NOT = { exists = scope:educator }
						exists = liege
						liege = {
							any_directly_owned_province = {
								OR = {
									terrain = mountains
									terrain = hills
									terrain = wetlands
								}
							}
						}
					}
				}
			}
			modifier = {
				culture = {
					has_cultural_parameter = rough_terrain_expert_trait_more_common
				}
				factor = 2
			}
			add_trait = rough_terrain_expert
		}
	}
}



custom_tooltip_learning_coming_of_age_effect = {
	if = {
		limit = {
			has_trait = education_learning_1
		}
		custom_tooltip = coming_of_age.0001.tt.1
	}
	else_if = {
		limit = {
			has_trait = education_learning_2
		}
		custom_tooltip = coming_of_age.0001.tt.2
	}
	else_if = {
		limit = {
			has_trait = education_learning_3
		}
		custom_tooltip = coming_of_age.0001.tt.3
	}
	else_if = {
		limit = {
			has_trait = education_learning_4
		}
		custom_tooltip = coming_of_age.0001.tt.4
	}
	if = {
		limit = {
			exists = scope:crush
		}
		custom_tooltip = coming_of_age.0001.tt.5
	}
	if = {
		limit = {
			exists = scope:victim
		}
		custom_tooltip = coming_of_age.0001.tt.7
	}
	if = {
		limit = {
			exists = scope:bully
		}
		custom_tooltip = coming_of_age.0001.tt.9
	}
}

custom_tooltip_stewardship_coming_of_age_effect = {
	if = {
		limit = {
			has_trait = education_stewardship_1
		}
		custom_tooltip = coming_of_age.0001.tt.1
	}
	else_if = {
		limit = {
			has_trait = education_stewardship_2
		}
		custom_tooltip = coming_of_age.0001.tt.2
	}
	else_if = {
		limit = {
			has_trait = education_stewardship_3
		}
		custom_tooltip = coming_of_age.0001.tt.3
	}
	else_if = {
		limit = {
			has_trait = education_stewardship_4
		}
		custom_tooltip = coming_of_age.0001.tt.4
	}
	if = {
		limit = {
			exists = scope:crush
		}
		custom_tooltip = coming_of_age.0001.tt.5
	}
	if = {
		limit = {
			exists = scope:victim
		}
		custom_tooltip = coming_of_age.0001.tt.7
	}
	if = {
		limit = {
			exists = scope:bully
		}
		custom_tooltip = coming_of_age.0001.tt.9
	}
}

custom_tooltip_martial_coming_of_age_effect = {
	if = {
		limit = {
			has_trait = education_martial_1
		}
		custom_tooltip = coming_of_age.0001.tt.1
	}
	else_if = {
		limit = {
			has_trait = education_martial_2
		}
		custom_tooltip = coming_of_age.0001.tt.2
	}
	else_if = {
		limit = {
			has_trait = education_martial_3
		}
		custom_tooltip = coming_of_age.0001.tt.3
	}
	else_if = {
		limit = {
			has_trait = education_martial_4
		}
		custom_tooltip = coming_of_age.0001.tt.4
	}
	if = {
		limit = {
			exists = scope:crush
		}
		custom_tooltip = coming_of_age.0001.tt.5
	}
	if = {
		limit = {
			exists = scope:victim
		}
		custom_tooltip = coming_of_age.0001.tt.7
	}
	if = {
		limit = {
			exists = scope:bully
		}
		custom_tooltip = coming_of_age.0001.tt.9
	}
}

custom_tooltip_intrigue_coming_of_age_effect = {
	if = {
		limit = {
			has_trait = education_intrigue_1
		}
		custom_tooltip = coming_of_age.0001.tt.1
	}
	else_if = {
		limit = {
			has_trait = education_intrigue_2
		}
		custom_tooltip = coming_of_age.0001.tt.2
	}
	else_if = {
		limit = {
			has_trait = education_intrigue_3
		}
		custom_tooltip = coming_of_age.0001.tt.3
	}
	else_if = {
		limit = {
			has_trait = education_intrigue_4
		}
		custom_tooltip = coming_of_age.0001.tt.4
	}
	if = {
		limit = {
			exists = scope:crush
		}
		custom_tooltip = coming_of_age.0001.tt.5
	}
	if = {
		limit = {
			exists = scope:victim
		}
		custom_tooltip = coming_of_age.0001.tt.7
	}
	if = {
		limit = {
			exists = scope:bully
		}
		custom_tooltip = coming_of_age.0001.tt.9
	}
}

custom_tooltip_diplomacy_coming_of_age_effect = {
	if = {
		limit = {
			has_trait = education_diplomacy_1
		}
		custom_tooltip = coming_of_age.0001.tt.1
	}
	else_if = {
		limit = {
			has_trait = education_diplomacy_2
		}
		custom_tooltip = coming_of_age.0001.tt.2
	}
	else_if = {
		limit = {
			has_trait = education_diplomacy_3
		}
		custom_tooltip = coming_of_age.0001.tt.3
	}
	else_if = {
		limit = {
			has_trait = education_diplomacy_4
		}
		custom_tooltip = coming_of_age.0001.tt.4
	}
	if = {
		limit = {
			exists = scope:crush
		}
		custom_tooltip = coming_of_age.0001.tt.5
	}
	if = {
		limit = {
			exists = scope:victim
		}
		custom_tooltip = coming_of_age.0001.tt.7
	}
	if = {
		limit = {
			exists = scope:bully
		}
		custom_tooltip = coming_of_age.0001.tt.9
	}
}


remove_variables_and_trait_coming_of_age_effect = {
	if = {
		limit = {
			exists = var:had_childhood_crush_variable
		}
		remove_variable = had_childhood_crush_variable
	}
	if = {
		limit = {
			exists = var:unrequited_crush
		}
		remove_variable = unrequited_crush
	}
	if = {
		limit = {
			exists = var:had_childhood_victim_variable
		}
		remove_variable = had_childhood_victim_variable
	}
	if = {
		limit = {
			exists = var:had_childhood_bully_variable
		}
		remove_variable = had_childhood_bully_variable
	}
	if = {
		limit = { has_trait = curious }
		remove_trait = curious
	}
	if = {
		limit = { has_trait = rowdy }
		remove_trait = rowdy
	}
	if = {
		limit = { has_trait = bossy }
		remove_trait = bossy
	}
	if = {
		limit = { has_trait = charming }
		remove_trait = charming
	}
	if = {
		limit = { has_trait = pensive }
		remove_trait = pensive
	}
	if = {
		limit = {
			has_character_flag = bully_destroyed_toy
		}
		remove_character_flag = bully_destroyed_toy
	}
	if = {
		limit = {
			has_character_flag = natural_education_progression
		}
		remove_character_flag = natural_education_progression
	}
	if = {
		limit = {
			has_variable = education_point_gain_variable
		}
		remove_variable = education_point_gain_variable
	}
	if = {
		limit = {
			has_variable = childhood_trait_type
		}
		remove_variable = childhood_trait_type
	}
}

#Save childhood trait as a variable flag
save_childhood_trait_as_variable_effect = {
	if = {
		limit = { has_trait = rowdy }
		set_variable = {
			name = childhood_trait_type
			value = flag:rowdy
		}
	}
	else_if = {
		limit = { has_trait = curious }
		set_variable = {
			name = childhood_trait_type
			value = flag:curious
		}
	}
	else_if = {
		limit = { has_trait = bossy }
		set_variable = {
			name = childhood_trait_type
			value = flag:bossy
		}
	}
	else_if = {
		limit = { has_trait = charming }
		set_variable = {
			name = childhood_trait_type
			value = flag:charming
		}
	}
	else_if = {
		limit = { has_trait = pensive }
		set_variable = {
			name = childhood_trait_type
			value = flag:pensive
		}
	}
}


#Display correct trait tooltip
display_correct_education_trait_gain_tooltip_effect = {
	if = {
		limit = { has_trait = education_diplomacy_1 }
		show_as_tooltip = {
			add_trait_force_tooltip = education_diplomacy_1
		}
	}
	if = {
		limit = { has_trait = education_diplomacy_2 }
		show_as_tooltip = {
			add_trait_force_tooltip = education_diplomacy_2
		}
	}
	if = {
		limit = { has_trait = education_diplomacy_3 }
		show_as_tooltip = {
			add_trait_force_tooltip = education_diplomacy_3
		}
	}
	if = {
		limit = { has_trait = education_diplomacy_4 }
		show_as_tooltip = {
			add_trait_force_tooltip = education_diplomacy_4
		}
	}
	if = {
		limit = { has_trait = education_martial_1 }
		show_as_tooltip = {
			add_trait_force_tooltip = education_martial_1
		}
	}
	if = {
		limit = { has_trait = education_martial_2 }
		show_as_tooltip = {
			add_trait_force_tooltip = education_martial_2
		}
	}
	if = {
		limit = { has_trait = education_martial_3 }
		show_as_tooltip = {
			add_trait_force_tooltip = education_martial_3
		}
	}
	if = {
		limit = { has_trait = education_martial_4 }
		show_as_tooltip = {
			add_trait_force_tooltip = education_martial_4
		}
	}
	if = {
		limit = { has_trait = education_stewardship_1 }
		show_as_tooltip = {
			add_trait_force_tooltip = education_stewardship_1
		}
	}
	if = {
		limit = { has_trait = education_stewardship_2 }
		show_as_tooltip = {
			add_trait_force_tooltip = education_stewardship_2
		}
	}
	if = {
		limit = { has_trait = education_stewardship_3 }
		show_as_tooltip = {
			add_trait_force_tooltip = education_stewardship_3
		}
	}
	if = {
		limit = { has_trait = education_stewardship_4 }
		show_as_tooltip = {
			add_trait_force_tooltip = education_stewardship_4
		}
	}
	if = {
		limit = { has_trait = education_intrigue_1 }
		show_as_tooltip = {
			add_trait_force_tooltip = education_intrigue_1
		}
	}
	if = {
		limit = { has_trait = education_intrigue_2 }
		show_as_tooltip = {
			add_trait_force_tooltip = education_intrigue_2
		}
	}
	if = {
		limit = { has_trait = education_intrigue_3 }
		show_as_tooltip = {
			add_trait_force_tooltip = education_intrigue_3
		}
	}
	if = {
		limit = { has_trait = education_intrigue_4 }
		show_as_tooltip = {
			add_trait_force_tooltip = education_intrigue_4
		}
	}
	if = {
		limit = { has_trait = education_learning_1 }
		show_as_tooltip = {
			add_trait_force_tooltip = education_learning_1
		}
	}
	if = {
		limit = { has_trait = education_learning_2 }
		show_as_tooltip = {
			add_trait_force_tooltip = education_learning_2
		}
	}
	if = {
		limit = { has_trait = education_learning_3 }
		show_as_tooltip = {
			add_trait_force_tooltip = education_learning_3
		}
	}
	if = {
		limit = { has_trait = education_learning_4 }
		show_as_tooltip = {
			add_trait_force_tooltip = education_learning_4
		}
	}
	if = { # Knighthood innovation
		limit = { has_trait = education_martial_prowess_1 }
		show_as_tooltip = {
			add_trait_force_tooltip = education_martial_prowess_1
		}
	}
	if = {
		limit = { has_trait = education_martial_prowess_2 }
		show_as_tooltip = {
			add_trait_force_tooltip = education_martial_prowess_2
		}
	}
	if = {
		limit = { has_trait = education_martial_prowess_3 }
		show_as_tooltip = {
			add_trait_force_tooltip = education_martial_prowess_3
		}
	}
	if = {
		limit = { has_trait = education_martial_prowess_4 }
		show_as_tooltip = {
			add_trait_force_tooltip = education_martial_prowess_4
		}
	}
	if = { # Esotericism Tenet
		limit = { has_trait = mystic_1 }
		show_as_tooltip = {
			add_trait_force_tooltip = mystic_1
		}
	}
	if = {
		limit = {
			has_trait = logistician
		}
		show_as_tooltip = {
			add_trait_force_tooltip = logistician
		}
	}
	if = {
		limit = {
			has_trait = military_engineer
		}
		show_as_tooltip = {
			add_trait_force_tooltip = military_engineer
		}
	}
	if = {
		limit = {
			has_trait = aggressive_attacker
		}
		show_as_tooltip = {
			add_trait_force_tooltip = aggressive_attacker
		}
	}
	if = {
		limit = {
			has_trait = unyielding_defender
		}
		show_as_tooltip = {
			add_trait_force_tooltip = unyielding_defender
		}
	}
	if = {
		limit = {
			has_trait = forder
		}
		show_as_tooltip = {
			add_trait_force_tooltip = forder
		}
	}
	if = {
		limit = {
			has_trait = flexible_leader
		}
		show_as_tooltip = {
			add_trait_force_tooltip = flexible_leader
		}
	}
	if = {
		limit = {
			has_trait = desert_warrior
		}
		show_as_tooltip = {
			add_trait_force_tooltip = desert_warrior
		}
	}
	if = {
		limit = {
			has_trait = jungle_stalker
		}
		show_as_tooltip = {
			add_trait_force_tooltip = jungle_stalker
		}
	}
	if = {
		limit = {
			has_trait = winter_soldier
		}
		show_as_tooltip = {
			add_trait_force_tooltip = winter_soldier
		}
	}
	if = {
		limit = {
			has_trait = reaver
		}
		show_as_tooltip = {
			add_trait_force_tooltip = reaver
		}
	}
	if = {
		limit = {
			has_trait = reckless
		}
		show_as_tooltip = {
			add_trait_force_tooltip = reckless
		}
	}
	if = {
		limit = {
			has_trait = holy_warrior
		}
		show_as_tooltip = {
			add_trait_force_tooltip = holy_warrior
		}
	}
	if = {
		limit = {
			has_trait = rough_terrain_expert
		}
		show_as_tooltip = {
			add_trait_force_tooltip = rough_terrain_expert
		}
	}
}


#To run every time a guardian/ward relationship is set
guardian_add_opinion_effect = {
	$GUARDIAN$ = {
		if = {
			limit = { NOT = { this = $WARD_LIEGE$ } }

			#For educator
			if = {
				limit = { $WARD_LIEGE$ = { player_heir = $WARD$ } }
				add_opinion = {
					target = $WARD_LIEGE$
					modifier = guardian_of_heir_opinion
				}
			}
			else_if = {
				limit = { $WARD_LIEGE$ = { is_close_family_of = $WARD$ } }
				add_opinion = {
					target = $WARD_LIEGE$
					modifier = guardian_of_relative_opinion
				}
			}

			#For educator liege, if educator is courtier
			if = {
				limit = {
					exists = liege
					is_ruler = no
					NOT = { liege = $WARD_LIEGE$ }
				}
				liege = {
					if = {
						limit = { $WARD_LIEGE$ = { player_heir = $WARD$ } }
						add_opinion = {
							target = $WARD_LIEGE$
							modifier = guardian_of_heir_opinion
						}
					}
					else_if = {
						limit = { $WARD_LIEGE$ = { is_close_family_of = $WARD$ } }
						add_opinion = {
							target = $WARD_LIEGE$
							modifier = guardian_of_relative_opinion
						}
					}

					scope:ward = {
						set_variable = {
							name = guardian_liege
							value = prev
						}
					}
				}
			}
		}
	}
}

#To run every time a guardian/ward relationship is ended (should be in all decisions/event options etc. where the relation is removed, but is also run through the on_remove_relation_guardian on_action just in case)
guardian_remove_opinion_effect = {
	$GUARDIAN$ = {
		if = {
			limit = {
				has_opinion_modifier = {
					modifier = guardian_of_heir_opinion
					target = $WARD_LIEGE$
				}
			}
			remove_opinion = {
				modifier = guardian_of_heir_opinion
				target = $WARD_LIEGE$
			}
		}
		else_if = {
			limit = {
				has_opinion_modifier = {
					modifier = guardian_of_relative_opinion
					target = $WARD_LIEGE$
				}
				NOT = { # They're not still guardian of a relative
					any_relation = {
						type = ward
						is_close_family_of = $WARD_LIEGE$
					}
				}
			}
			remove_opinion = {
				modifier = guardian_of_relative_opinion
				target = $WARD_LIEGE$
			}
		}

		$WARD$ = {
			if = {
				limit = {
					exists = var:guardian_liege
					var:guardian_liege = { is_alive = yes }
				}
				var:guardian_liege = {
					if = {
						limit = {
							has_opinion_modifier = {
								modifier = guardian_of_heir_opinion
								target = $WARD_LIEGE$
							}
						}
						remove_opinion = {
							modifier = guardian_of_heir_opinion
							target = $WARD_LIEGE$
						}
					}
					else_if = {
						limit = {
							has_opinion_modifier = {
								modifier = guardian_of_relative_opinion
								target = $WARD_LIEGE$
							}
							NOT = { # They're not still guardian of a relative
								any_relation = {
									type = ward
									is_close_family_of = $WARD_LIEGE$
								}
							}
						}
						remove_opinion = {
							modifier = guardian_of_relative_opinion
							target = $WARD_LIEGE$
						}
					}
				}
				remove_variable = guardian_liege
			}
		}
	}
}

#Additional effects run to wrap up education
wrap_up_education_effect = {
	if = {
		limit = { exists = scope:educator }
		remove_relation_guardian = scope:educator
		scope:educator = {
			if = {
				limit = {
					is_foreign_court_guest = yes
					NOR = {
						host = liege
						is_landed = yes
						any_relation = { #They're not at another ward's court
							type = ward
							is_landed = yes
							this = scope:educator.host
						}
					}
				}
				return_to_court = yes
			}
		}
	}

	if = {
		limit = {
			is_foreign_court_guest = yes
			NOT = { host = liege }
		}
		return_to_court = yes
	}
}

rank_up_education_effect = {
	if = {
		limit = { has_education_rank_4_trigger = no }
		if = {
			limit = { has_trait = education_diplomacy }
			change_trait_rank = {
				trait = education_diplomacy
				rank = 1
			}
		}
		else_if = {
			limit = { has_trait = education_martial }
			change_trait_rank = {
				trait = education_martial
				rank = 1
			}
		}
		else_if = {
			limit = { has_trait = education_stewardship }
			change_trait_rank = {
				trait = education_stewardship
				rank = 1
			}
		}
		else_if = {
			limit = { has_trait = education_intrigue }
			change_trait_rank = {
				trait = education_intrigue
				rank = 1
			}
		}
		else_if = {
			limit = { has_trait = education_learning }
			change_trait_rank = {
				trait = education_learning
				rank = 1
			}
		}
	}
}

results_of_university_education_points_effect = {
	if = {
		limit = {
			has_character_flag = studying_at_university
		}
		#Adding the points to the current education
		if = {
			limit = { has_focus = education_diplomacy }
			change_variable = {
				name = education_diplomacy_variable
				add = 12 #They should reach the top if they're not completely dumb
			}
		}
		else_if = {
			limit = { has_focus = education_martial }
			change_variable = {
				name = education_martial_variable
				add = 12 #They should reach the top if they're not completely dumb
			}
		}
		else_if = {
			limit = { has_focus = education_stewardship }
			change_variable = {
				name = education_stewardship_variable
				add = 12 #They should reach the top if they're not completely dumb
			}
		}
		else_if = {
			limit = { has_focus = education_intrigue }
			change_variable = {
				name = education_intrigue_variable
				add = 12 #They should reach the top if they're not completely dumb
			}
		}
		else_if = {
			limit = { has_focus = education_learning }
			change_variable = {
				name = education_learning_variable
				add = 12 #They should reach the top if they're not completely dumb
			}
		}
		remove_character_flag = studying_at_university
		add_character_flag = studied_at_university
	}

	if = {
		limit = {
			NOT = {
				has_trait = drunkard
			}
		}
		hidden_effect = {
			random = {
				chance = 2
				add_trait = drunkard
			}
		}
	}
}

dynasty_legacy_education_boost_effect = {
	if = {
		limit = {
			has_dynasty = yes
			dynasty = { has_dynasty_perk = kin_legacy_2 }
		}
		
		if = {
			limit = { has_focus = education_diplomacy }
			random_list = {
				60 = {
					change_variable = {
						name = education_diplomacy_variable
						add = 2
					}
				}
				40 = {
					change_variable = {
						name = education_diplomacy_variable
						add = 3
					}
				}
			}
		}
		else_if = {
			limit = { has_focus = education_martial }
			random_list = {
				60 = {
					change_variable = {
						name = education_martial_variable
						add = 2
					}
				}
				40 = {
					change_variable = {
						name = education_martial_variable
						add = 3
					}
				}
			}
		}
		else_if = {
			limit = { has_focus = education_stewardship }
			random_list = {
				60 = {
					change_variable = {
						name = education_stewardship_variable
						add = 2
					}
				}
				40 = {
					change_variable = {
						name = education_stewardship_variable
						add = 3
					}
				}
			}
		}
		else_if = {
			limit = { has_focus = education_intrigue }
			random_list = {
				60 = {
					change_variable = {
						name = education_intrigue_variable
						add = 2
					}
				}
				40 = {
					change_variable = {
						name = education_intrigue_variable
						add = 3
					}
				}
			}
		}
		else_if = {
			limit = { has_focus = education_learning }
			random_list = {
				60 = {
					change_variable = {
						name = education_learning_variable
						add = 2
					}
				}
				40 = {
					change_variable = {
						name = education_learning_variable
						add = 3
					}
				}
			}
		}
	}
}

cultural_traditions_education_boost_effect = {
	if = {
		limit = {
			culture = {
				has_cultural_parameter = diplomacy_education_better_outcomes
			}
			has_focus = education_diplomacy
		}
		
		random_list = {
			60 = {
				change_variable = {
					name = education_diplomacy_variable
					add = 1
				}
			}
			40 = {
				change_variable = {
					name = education_diplomacy_variable
					add = 0
				}
			}
		}
	}
	if = {
		limit = {
			culture = {
				has_cultural_parameter = martial_education_worse_outcomes
			}
			has_focus = education_martial
			exists = var:education_martial_variable
			var:education_martial_variable > 0
		}
		
		change_variable = {
			name = education_martial_variable
			add = -1
		}
	}
}

court_tutor_education_boost_effect = {
	if = {
		limit = {
			employs_court_position = court_tutor_court_position
			any_court_position_holder = {
				type = court_tutor_court_position
			}
		}
		#Let's save the court tutor with the highest aptitude
		random_court_position_holder = {
			type = court_tutor_court_position
			limit = { aptitude:court_tutor_court_position >= 5 }
			alternative_limit = { aptitude:court_tutor_court_position >= 4 }
			alternative_limit = { aptitude:court_tutor_court_position >= 3 }
			alternative_limit = { aptitude:court_tutor_court_position >= 2 }
			alternative_limit = { always = yes }
			save_scope_as = court_tutor
		}
		if = {
			limit = { has_focus = education_diplomacy }
			random_list = {
				10 = { # Small chance for a GREAT boost
					trigger = {
						scope:court_tutor.aptitude:court_tutor_court_position = 5
					}
					change_variable = {
						name = education_diplomacy_variable
						add = 4
					}
				}
				40 = {
					modifier = {
						add = 20
						scope:court_tutor.aptitude:court_tutor_court_position = 5
					}
					modifier = {
						add = 10
						scope:court_tutor.aptitude:court_tutor_court_position = 4
					}
					change_variable = {
						name = education_diplomacy_variable
						add = 3
					}
				}
				50 = {
					modifier = {
						add = 10
						scope:court_tutor.aptitude:court_tutor_court_position = 2
					}
					modifier = {
						add = 20
						scope:court_tutor.aptitude:court_tutor_court_position = 1
					}
					change_variable = {
						name = education_diplomacy_variable
						add = 2
					}
				}
			}
		}
		else_if = {
			limit = { has_focus = education_martial }
			random_list = {
				10 = { # Small chance for a GREAT boost
					trigger = {
						scope:court_tutor.aptitude:court_tutor_court_position = 5
					}
					change_variable = {
						name = education_martial_variable
						add = 4
					}
				}
				40 = {
					modifier = {
						add = 20
						scope:court_tutor.aptitude:court_tutor_court_position = 5
					}
					modifier = {
						add = 10
						scope:court_tutor.aptitude:court_tutor_court_position = 4
					}
					change_variable = {
						name = education_martial_variable
						add = 3
					}
				}
				50 = {
					modifier = {
						add = 10
						scope:court_tutor.aptitude:court_tutor_court_position = 2
					}
					modifier = {
						add = 20
						scope:court_tutor.aptitude:court_tutor_court_position = 1
					}
					change_variable = {
						name = education_martial_variable
						add = 2
					}
				}
			}
		}
		else_if = {
			limit = { has_focus = education_stewardship }
			random_list = {
				10 = { # Small chance for a GREAT boost
					trigger = {
						scope:court_tutor.aptitude:court_tutor_court_position = 5
					}
					change_variable = {
						name = education_stewardship_variable
						add = 4
					}
				}
				40 = {
					modifier = {
						add = 20
						scope:court_tutor.aptitude:court_tutor_court_position = 5
					}
					modifier = {
						add = 10
						scope:court_tutor.aptitude:court_tutor_court_position = 4
					}
					change_variable = {
						name = education_stewardship_variable
						add = 3
					}
				}
				50 = {
					modifier = {
						add = 10
						scope:court_tutor.aptitude:court_tutor_court_position = 2
					}
					modifier = {
						add = 20
						scope:court_tutor.aptitude:court_tutor_court_position = 1
					}
					change_variable = {
						name = education_stewardship_variable
						add = 2
					}
				}
			}
		}
		else_if = {
			limit = { has_focus = education_intrigue }
			random_list = {
				10 = { # Small chance for a GREAT boost
					trigger = {
						scope:court_tutor.aptitude:court_tutor_court_position = 5
					}
					change_variable = {
						name = education_intrigue_variable
						add = 4
					}
				}
				40 = {
					modifier = {
						add = 20
						scope:court_tutor.aptitude:court_tutor_court_position = 5
					}
					modifier = {
						add = 10
						scope:court_tutor.aptitude:court_tutor_court_position = 4
					}
					change_variable = {
						name = education_intrigue_variable
						add = 3
					}
				}
				50 = {
					modifier = {
						add = 10
						scope:court_tutor.aptitude:court_tutor_court_position = 2
					}
					modifier = {
						add = 20
						scope:court_tutor.aptitude:court_tutor_court_position = 1
					}
					change_variable = {
						name = education_intrigue_variable
						add = 2
					}
				}
			}
		}
		else_if = {
			limit = { has_focus = education_learning }
			random_list = {
				10 = { # Small chance for a GREAT boost
					trigger = {
						scope:court_tutor.aptitude:court_tutor_court_position = 5
					}
					change_variable = {
						name = education_learning_variable
						add = 4
					}
				}
				40 = {
					modifier = {
						add = 20
						scope:court_tutor.aptitude:court_tutor_court_position = 5
					}
					modifier = {
						add = 10
						scope:court_tutor.aptitude:court_tutor_court_position = 4
					}
					change_variable = {
						name = education_learning_variable
						add = 3
					}
				}
				50 = {
					modifier = {
						add = 10
						scope:court_tutor.aptitude:court_tutor_court_position = 2
					}
					modifier = {
						add = 20
						scope:court_tutor.aptitude:court_tutor_court_position = 1
					}
					change_variable = {
						name = education_learning_variable
						add = 2
					}
				}
			}
		}
	}
}

post_education_bonuses_effect = {
	if = {
		limit = {
			exists = scope:educator
			character_has_commander_trait_scope_does_not = scope:educator
			scope:educator = {
				culture = {
					has_cultural_parameter = guardians_can_transfer_commander_traits
				}
			}
		}
		culture_randomize_commander_trait_effect = yes
	}
}

culture_randomize_commander_trait_effect = {
	random_list = {
		100 = {
			trigger = {
				NOT = { has_trait = rough_terrain_expert }
				scope:educator = {
					has_trait = rough_terrain_expert
				}
			}
			add_trait = rough_terrain_expert
		}
		100 = {
			trigger = {
				NOT = { has_trait = logistician }
				scope:educator = {
					has_trait = logistician
				}
			}
			add_trait = logistician
		}
		100 = {
			trigger = {
				NOT = { has_trait = military_engineer }
				scope:educator = {
					has_trait = military_engineer
				}
			}
			add_trait = military_engineer
		}
		100 = {
			trigger = {
				NOT = { has_trait = aggressive_attacker }
				scope:educator = {
					has_trait = aggressive_attacker
				}
			}
			add_trait = aggressive_attacker
		}
		100 = {
			trigger = {
				NOT = { has_trait = unyielding_defender }
				scope:educator = {
					has_trait = unyielding_defender
				}
			}
			add_trait = unyielding_defender
		}
		100 = {
			trigger = {
				NOT = { has_trait = forder }
				scope:educator = {
					has_trait = forder
				}
			}
			add_trait = forder
		}
		100 = {
			trigger = {
				NOT = { has_trait = flexible_leader }
				scope:educator = {
					has_trait = flexible_leader
				}
			}
			add_trait = flexible_leader
		}
		100 = {
			trigger = {
				NOT = { has_trait = desert_warrior }
				scope:educator = {
					has_trait = desert_warrior
				}
			}
			add_trait = desert_warrior
		}
		100 = {
			trigger = {
				NOT = { has_trait = jungle_stalker }
				scope:educator = {
					has_trait = jungle_stalker
				}
			}
			add_trait = jungle_stalker
		}
		100 = {
			trigger = {
				NOT = { has_trait = winter_soldier }
				scope:educator = {
					has_trait = winter_soldier
				}
			}
			add_trait = winter_soldier
		}
		100 = {
			trigger = {
				NOT = { has_trait = reaver }
				scope:educator = {
					has_trait = reaver
				}
			}
			add_trait = reaver
		}
		100 = {
			trigger = {
				NOT = { has_trait = reckless }
				scope:educator = {
					has_trait = reckless
				}
			}
			add_trait = reckless
		}
		100 = {
			trigger = {
				NOT = { has_trait = holy_warrior }
				scope:educator = {
					has_trait = holy_warrior
				}
			}
			add_trait = holy_warrior
		}
	}
}
